Getting Data from SEC’s EDGAR
…
# View(tab_details)
tab_details %>%
  mutate(year = year(period_date)) %>%
  group_by(type.x, year) %>%
  count() %>%
  pivot_wider(
    names_from = type.x, 
    values_from = n, 
    names_sort = TRUE,
    values_fill = 0
    )

## # A tibble: 29 x 5
## # Groups:   year [29]
##     year `10-K` `10-K/A` `10-K405` `10-K405/A`
##    <dbl>  <int>    <int>     <int>       <int>
##  1  1993    780      124         0           0
##  2  1994    855      185       347          28
##  3  1995    900      142       469          28
##  4  1996    938      106       491         109
##  5  1997    929       74       696         149
##  6  1998   1020      111       464          72
##  7  1999   1056       92       572          42
##  8  2000   1058       80       611          97
##  9  2001    875      147       812          10
## 10  2002   2258      232         0           0
## # ... with 19 more rows
…
