…
select(tab_match_fuzzy, sim, company_0, company_1) %>%
  arrange(desc(sim)) %>%
  mutate(row = row_number())
```

```
## # A tibble: 64 x 4
##      sim company_0                            company_1                            row
##    <dbl> <chr>                                <chr>                              <int>
##  1 0.971 Millicom International Cellular S.A. MILLICOM INTERNATIONAL CELLULAR SA     1
##  2 0.969 Corporacion America Airports SA      CORPORACION AMERICA AIRPORTS S.A.      2
##  3 0.969 Turkcell Iletisim Hizmetleri AS      TURKCELL ILETISIM HIZMETLERI A.S.      3
##  4 0.938 Ardagh Group Sa                      ARDAGH GROUP S.A.                      4
##  5 0.929 Akzo Nobel N.V.                      AKZO NOBEL NV                          5
##  6 0.923 Iberdrola S.A.                       IBERDROLA SA                           6
##  7 0.923 Inter Parfums                        INTERPARFUMS                           7
##  8 0.923 WSP Group plc                        SSP GROUP PLC                          8
##  9 0.917 Heineken N.V.                        HEINEKEN NV                            9
## 10 0.917 Intelsat SA                          INTELSAT S.A.                         10
## # ... with 54 more rows
```
…
